[gd_scene load_steps=2 format=2]

[ext_resource path="res://assets/light.png" type="Texture" id=1]

[node name="Light2D" type="Light2D"]

show_behind_parent = true
enabled = true
editor_only = false
texture = ExtResource( 1 )
offset = Vector2( 0, 0 )
texture_scale = 1.0
color = Color( 1, 1, 1, 1 )
energy = 1.0
mode = 0
range_height = 0.0
range_z_min = -1024
range_z_max = 1024
range_layer_min = 0
range_layer_max = 0
range_item_cull_mask = 1
shadow_enabled = true
shadow_color = Color( 0, 0, 0, 0.729255 )
shadow_buffer_size = 2048
shadow_gradient_length = 0.0
shadow_filter = 0
shadow_filter_smooth = 0.0
shadow_item_cull_mask = 1
_sections_unfolded = [ "Shadow", "Visibility" ]


